<?xml version="1.0" encoding="UTF-8"?>
<svg width="22px" height="21px" viewBox="0 0 22 21" version="1.1" xmlns="http://www.w3.org/2000/svg" xmlns:xlink="http://www.w3.org/1999/xlink">
    <!-- Generator: sketchtool 56.2 (101010) - https://sketch.com -->
    <title>E9AC9573-7BDA-4D56-AD6A-AFA14EA7EA01</title>
    <desc>Created with sketchtool.</desc>
    <g id="Infoleven_Dashboard_Messages_News_Concept" stroke="none" stroke-width="1" fill="none" fill-rule="evenodd">
        <g id="1.5_Dashbaord_Support" transform="translate(-116.000000, -565.000000)">
            <g id="Group-6" transform="translate(85.000000, 506.000000)">
                <g id="outline-build-24px" transform="translate(30.542373, 58.522843)">
                    <polygon id="Path" points="0 0 22.9067797 0 22.9067797 22.2944162 0 22.2944162"></polygon>
                    <path d="M21.5800953,17.6404569 L12.913697,9.20573604 C13.8013347,7.03203046 13.3431992,4.46817259 11.5392903,2.70319797 C9.3440572,0.566649746 5.92712924,0.371573604 3.4932839,2.09939086 L7.15836864,5.6757868 L5.80305085,6.98558376 L2.14751059,3.4277665 C0.372235169,5.78725888 0.572669492,9.12213198 2.76790254,11.2493909 C4.54317797,12.9772081 7.12973517,13.4323858 9.3440572,12.6242132 L18.039089,21.086802 C18.4113242,21.4490863 19.0126271,21.4490863 19.3848623,21.086802 L21.5800953,18.9502538 C21.961875,18.5972589 21.961875,18.0120305 21.5800953,17.6404569 Z M18.7167479,19.1267513 L9.6876589,10.3390355 C9.10544492,10.7570558 8.45641949,11.007868 7.77876059,11.1007614 C6.48070975,11.2865482 5.11584746,10.9056853 4.12322034,9.93959391 C3.21649364,9.06639594 2.79653602,7.89593909 2.86334746,6.74406091 L5.81259534,9.61446701 L9.85945975,5.6757868 L6.91021186,2.80538071 C8.09372881,2.74035533 9.28679025,3.14908629 10.1935169,4.02228426 C11.224322,5.02553299 11.6156462,6.40964467 11.3770339,7.70086294 C11.2625,8.36040609 10.9761653,8.97350254 10.5371186,9.5215736 L19.5566631,18.3 L18.7167479,19.1267513 Z" id="Shape" fill="#E71E2C" fill-rule="nonzero"></path>
                </g>
            </g>
        </g>
    </g>
</svg>